rtl/darksocv.vcd
$date
	Sat Jun  8 21:35:00 2024
$end

$version
	Synopsys VCS version U-2023.03-SP2_Full64
$end

$timescale
	1ps
$end

$comment Csum: 1 aa4a5904898343cd $end


$scope module uvm_pkg $end
$var time 64 ! setting_offset $end
$var reg 32 " uvm_global_random_seed [31:0] $end
$var reg 32 # UVM_UNBOUNDED_CONNECTIONS [31:0] $end
$var reg 32 $ setting_verbosity [31:0] $end
$var reg 1 % is_verdi_set_verbosity_called $end
$var reg 32 & m_uvm_core_state [31:0] $end
$upscope $end


$scope module $unit $end
$upscope $end


$scope module top $end
$var reg 1 ' CLK $end
$var wire 1 ( intf_uart_tx $end

$scope begin unnamed$$_vcs_2 $end
$upscope $end


$scope begin unnamed$$_vcs_0 $end
$upscope $end


$scope begin unnamed$$_vcs_1 $end
$upscope $end


$scope module intf $end
$var wire 1 ) clk $end
$var reg 1 * rst $end
$var reg 1 + uart_rx $end
$var reg 1 , uart_tx $end
$var reg 4 - leds [3:0] $end
$var reg 4 . debug [3:0] $end
$upscope $end


$scope module soc0 $end
$var wire 1 / XCLK $end
$var wire 1 0 XRES $end
$var wire 1 1 UART_RXD $end
$var wire 1 ( UART_TXD $end
$var wire 4 2 LED [3:0] $end
$var wire 4 3 DEBUG [3:0] $end
$var wire 1 4 CLK $end
$var wire 1 5 RES $end
$var integer 32 6 i $end
$var wire 32 7 IADDR [31:0] $end
$var wire 32 8 DADDR [31:0] $end
$var wire 32 9 IDATA [31:0] $end
$var wire 32 : DATAO [31:0] $end
$var wire 32 ; DATAI [31:0] $end
$var wire 1 < WR $end
$var wire 1 = RD $end
$var wire 4 > BE [3:0] $end
$var reg 16 ? GPIOFF [15:0] $end
$var reg 16 @ LEDFF [15:0] $end
$var wire 1 A HLT $end
$var reg 32 B ROMFF [31:0] $end
$var wire 1 C IHIT $end
$var reg 32 D ROMFF2 [31:0] $end
$var reg 1 E HLT2 $end
$var reg 32 F RAMFF [31:0] $end
$var reg 2 G DACK [1:0] $end
$var wire 1 H WHIT $end
$var wire 1 I DHIT $end
$var reg 32 J IOMUXFF [31:0] $end
$var reg 32 K XADDR [31:0] $end
$var reg 8 L IREQ [7:0] $end
$var reg 8 M IACK [7:0] $end
$var reg 32 N TIMERFF [31:0] $end
$var reg 32 O TIMEUS [31:0] $end
$var wire 8 P BOARD_IRQ [7:0] $end
$var wire 8 Q BOARD_ID [7:0] $end
$var wire 8 R BOARD_CM [7:0] $end
$var wire 8 S CORE_ID [7:0] $end
$var reg 32 T TIMER [31:0] $end
$var reg 1 U XTIMER $end
$var wire 4 V UDEBUG [3:0] $end
$var wire 1 W FINISH_REQ $end
$var wire 4 X KDEBUG [3:0] $end
$var wire 1 Y IDLE $end
$var integer 32 Z clocks $end
$var integer 32 [ running $end
$var integer 32 \ load $end
$var integer 32 ] store $end
$var integer 32 ^ flush $end
$var integer 32 _ halt $end

$scope module darkpll0 $end
$var wire 1 / XCLK $end
$var wire 1 0 XRES $end
$var wire 1 4 CLK $end
$var wire 1 5 RES $end
$var reg 8 ` IRES [7:0] $end
$var wire 1 a LOCKED $end
$var reg 8 b DRES [7:0] $end
$upscope $end


$scope module uart0 $end
$var wire 1 4 CLK $end
$var wire 1 5 RES $end
$var wire 1 c RD $end
$var wire 1 d WR $end
$var wire 4 > BE [3:0] $end
$var wire 32 : DATAI [31:0] $end
$var wire 32 e DATAO [31:0] $end
$var wire 1 f IRQ $end
$var wire 1 1 RXD $end
$var wire 1 ( TXD $end
$var reg 1 g FINISH_REQ $end
$var wire 4 V DEBUG [3:0] $end
$var reg 16 h UART_TIMER [15:0] $end
$var reg 1 i UART_IREQ $end
$var reg 1 j UART_IACK $end
$var reg 8 k UART_XFIFO [7:0] $end
$var reg 1 l UART_XREQ $end
$var reg 1 m UART_XACK $end
$var reg 16 n UART_XBAUD [15:0] $end
$var reg 4 o UART_XSTATE [3:0] $end
$var reg 8 p UART_RFIFO [7:0] $end
$var reg 1 q UART_RREQ $end
$var reg 1 r UART_RACK $end
$var reg 16 s UART_RBAUD [15:0] $end
$var reg 4 t UART_RSTATE [3:0] $end
$var reg 3 u UART_RXDFF [2:0] $end
$var wire 8 v UART_STATE [7:0] $end
$var reg 8 w UART_STATEFF [7:0] $end
$var reg 32 x DATAOFF [31:0] $end
$var reg 2 y IOREQ [1:0] $end
$var reg 2 z IOACK [1:0] $end
$upscope $end


$scope module core0 $end
$var wire 1 4 CLK $end
$var wire 1 5 RES $end
$var wire 1 A HLT $end
$var wire 32 9 IDATA [31:0] $end
$var wire 32 7 IADDR [31:0] $end
$var wire 32 ; DATAI [31:0] $end
$var wire 32 : DATAO [31:0] $end
$var wire 32 8 DADDR [31:0] $end
$var wire 4 > BE [3:0] $end
$var wire 1 < WR $end
$var wire 1 = RD $end
$var wire 1 Y IDLE $end
$var wire 4 X DEBUG [3:0] $end
$var wire 32 { ALL0 [31:0] $end
$var wire 32 | ALL1 [31:0] $end
$var reg 1 } XRES $end
$var reg 32 ~ XIDATA [31:0] $end
$var reg 1 "! XLUI $end
$var reg 1 "" XAUIPC $end
$var reg 1 "# XJAL $end
$var reg 1 "$ XJALR $end
$var reg 1 "% XBCC $end
$var reg 1 "& XLCC $end
$var reg 1 "' XSCC $end
$var reg 1 "( XMCC $end
$var reg 1 ") XRCC $end
$var reg 1 "* XCUS $end
$var reg 1 "+ XCCC $end
$var reg 32 ", XSIMM [31:0] $end
$var reg 32 "- XUIMM [31:0] $end
$var reg 2 ". FLUSH [1:0] $end
$var wire 5 "/ DPTR [4:0] $end
$var wire 5 "0 S1PTR [4:0] $end
$var wire 5 "1 S2PTR [4:0] $end
$var wire 7 "2 OPCODE [6:0] $end
$var wire 3 "3 FCT3 [2:0] $end
$var wire 7 "4 FCT7 [6:0] $end
$var wire 32 "5 SIMM [31:0] $end
$var wire 32 "6 UIMM [31:0] $end
$var wire 1 "7 LUI $end
$var wire 1 "8 AUIPC $end
$var wire 1 "9 JAL $end
$var wire 1 ": JALR $end
$var wire 1 "; BCC $end
$var wire 1 "< LCC $end
$var wire 1 "= SCC $end
$var wire 1 "> MCC $end
$var wire 1 "? RCC $end
$var wire 1 "@ CUS $end
$var wire 1 "A CCC $end
$var reg 32 "B NXPC2 [31:0] $end
$var reg 32 "C NXPC [31:0] $end
$var reg 32 "D PC [31:0] $end
$var integer 32 "E i $end
$var wire 32 "F U1REG [31:0] $end
$var wire 32 "G U2REG [31:0] $end
$var wire 32 "H S1REG [31:0] $end
$var wire 32 "I S2REG [31:0] $end
$var wire 32 "J LDATA [31:0] $end
$var wire 32 "K SDATA [31:0] $end
$var wire 1 "L EBRK $end
$var wire 32 "M S2REGX [31:0] $end
$var wire 32 "N U2REGX [31:0] $end
$var wire 32 "O RMDATA [31:0] $end
$var wire 1 "P BMUX $end
$var wire 32 "Q PCSIMM [31:0] $end
$var wire 1 "R JREQ $end
$var wire 32 "S JVAL [31:0] $end
$upscope $end

$upscope $end

$upscope $end


$scope module instructions_data_struc $end
$upscope $end


$scope module top_hvl $end

$scope begin unnamed$$_vcs_0 $end
$upscope $end

$upscope $end

$enddefinitions $end

#0
$dumpvars
0%
bxxxxxxxxxxxxxxxxxxxxxxxxxxxxxxxxxxxxxxxxxxxxxxxxxxxxxxxxxxxxxxxx !
b11111111111111111111111111111111 #
b00000000000000000000000000000101 &
b00000000000000000000000000000000 $
b01000010000001111100110001000111 "
0'
b0100 .
b0000 -
0"8
0";
x"P
0"A
0"@
1I
0"L
0W
0A
0E
1Y
1C
0f
0"9
0":
0"R
0"<
0a
0"7
0">
0"?
0=
15
0"=
0j
0i
0r
0q
0m
0l
1H
0<
x""
x"%
x"+
x"*
x"#
x"$
x"&
x"!
x"(
x")
x"'
0U
1}
0g
0c
0d
b00000000000000000000000000000000 {
b11111111111111111111111111111111 |
bxxxx >
b00110010 R
b00000000 Q
b00000000 P
b00000000 S
b00 G
bxxxxxxxxxxxxxxxxxxxxxxxxxxxxxxxx 8
bxxxxxxxxxxxxxxxxxxxxxxxxxxxxxxxx ;
bxxxxxxxxxxxxxxxxxxxxxxxxxxxxxxxx :
b00000000000000000000000000000000 x
b00000 "/
b11111111 b
b11 ".
b0000000000000000 ?
b00000000 M
bxxxxxxxxxxxxxxxxxxxxxxxxxxxxxxxx 7
bxxxxxxxxxxxxxxxxxxxxxxxxxxxxxxxx 9
b00 z
b00000000000000000000000000000000 J
b00 y
b00000000 L
b11111111 `
bxxxxxxxxxxxxxxxxxxxxxxxxxxxxxxxx "S
b1100 X
bxxxxxxxxxxxxxxxxxxxxxxxxxxxxxxxx "J
b0000000000000000 @
bxxxxxxxxxxxxxxxxxxxxxxxxxxxxxxxx "C
bxxxxxxxxxxxxxxxxxxxxxxxxxxxxxxxx "B
b0000000 "2
bxxxxxxxxxxxxxxxxxxxxxxxxxxxxxxxx "D
bxxxxxxxxxxxxxxxxxxxxxxxxxxxxxxxx "Q
bxxxxxxxxxxxxxxxxxxxxxxxxxxxxxxxx F
bxxxxxxxxxxxxxxxxxxxxxxxxxxxxxxxx "O
bxxxxxxxxxxxxxxxxxxxxxxxxxxxxxxxx B
b00000000000000000000000000000000 D
bxxxxxxxxxxxxxxxxxxxxxxxxxxxxxxxx "H
bxxxxxxxxxxxxxxxxxxxxxxxxxxxxxxxx "I
bxxxxxxxxxxxxxxxxxxxxxxxxxxxxxxxx "M
bxxxxxxxxxxxxxxxxxxxxxxxxxxxxxxxx "K
bxxxxxxxxxxxxxxxxxxxxxxxxxxxxxxxx "5
b00000000000000000000000000000000 T
b00000000000000000000000000000000 N
b00000000000000000000000000000000 O
bxxxxxxxxxxxxxxxxxxxxxxxxxxxxxxxx "F
bxxxxxxxxxxxxxxxxxxxxxxxxxxxxxxxx "G
bxxxxxxxxxxxxxxxxxxxxxxxxxxxxxxxx "N
b0000000000000000 s
b00000000 p
b0000 t
b111 u
b00000000 v
b00000000 w
b0000001101100100 h
b0000000000000000 n
b00000000 k
b0000 o
b0111 V
bxxxxxxxxxxxxxxxxxxxxxxxxxxxxxxxx "6
b00000000000000000000000000000000 K
bxxxxxxxxxxxxxxxxxxxxxxxxxxxxxxxx ~
bxxxxxxxxxxxxxxxxxxxxxxxxxxxxxxxx ",
bxxxxxxxxxxxxxxxxxxxxxxxxxxxxxxxx "-
b00000000000000000000000000000000 Z
b00000000000000000000000000010000 "E
b00000000000000000000000000000000 ^
b00000000000000000000000000000000 _
b00000000000000000000010000000000 6
b00000000000000000000000000000000 \
b00000000000000000000000000000000 [
b00000000000000000000000000000000 ]
bxxxxx "0
bxxxxx "1
bxxx "3
bxxxxxxx "4
0)
0/
04
1(
b0000 2
b0100 3
10
01
1*
0+
0,
b00000011011001000000000000000000 e
$end
#5000
1'
1)
1/
14
bxxxxxxxxxxxxxxxxxxxxxxxxxxxxxxxx K
bxxxxxxxxxxxxxxxxxxxxxxxxxxxxxxxx J
b00000000000000000000000001100011 N
b0000001101100100 n
b0110 o
b110 u
b0000001101100100 s
b0110 t
b00000000000000000000000000000000 ~
b00000 "0
b00000 "1
b000 "3
b0000000 "4
b00000000000000000000000000000000 "G
b00000000000000000000000000000000 "I
b00000000000000000000000000000000 "F
b00000000000000000000000000000000 "H
0"!
0""
0"#
0"$
0"%
0"&
0"'
0"(
0")
0"*
0"+
b00000000000000000000000000000000 ",
b00000000000000000000000000000000 "5
b00000000000000000000000000000000 "-
b00000000000000000000000000000000 "6
b10 ".
b00000000000000000000000000000000 "B
b00000000000000000000000000000000 7
b0100 V
b00000000000000000000000000000000 "K
b00000000000000000000000000000000 :
b00000000000000000000000000000000 "M
b00000000000000000000000000000000 "N
b00000000000000000000000000000000 8
b00000000000000000000000000000000 "O
1"P
b0001 >
#10000
0'
0)
0/
04
0*
00
#15000
1'
1)
1/
14
b11111110 `
b00000000100001110100101000110011 B
b00000000100001110100101000110011 F
b00000000000000000000000000000000 K
b00000000000000000011001000000000 J
b100 u
b0000000110110010 s
b00000000000000000000000000000000 "C
b00000000100001110100101000110011 9
b00000000100001110100101000110011 ;
b00000000000000000000000000110011 "J
#20000
0'
0)
0/
04
#25000
1'
1)
1/
14
b11111101 `
b000 u
b00000000000000000000000000000000 "D
b00000000000000000000000000000000 "Q
b00000000000000000000000000000000 "S
#30000
0'
0)
0/
04
#35000
1'
1)
1/
14
b11111100 `
#40000
0'
0)
0/
04
#45000
1'
1)
1/
14
b11111011 `
#50000
0'
0)
0/
04
#55000
1'
1)
1/
14
b11111010 `
#60000
0'
0)
0/
04
#65000
1'
1)
1/
14
b11111001 `
#70000
0'
0)
0/
04
#75000
1'
1)
1/
14
b11111000 `
#80000
0'
0)
0/
04
#85000
1'
1)
1/
14
b11110111 `
#90000
0'
0)
0/
04
#95000
1'
1)
1/
14
b11110110 `
#100000
0'
0)
0/
04
#105000
1'
1)
1/
14
b11110101 `
#110000
0'
0)
0/
04
#115000
1'
1)
1/
14
b11110100 `
#120000
0'
0)
0/
04
#125000
1'
1)
1/
14
b11110011 `
#130000
0'
0)
0/
04
#135000
1'
1)
1/
14
b11110010 `
#140000
0'
0)
0/
04
#145000
1'
1)
1/
14
b11110001 `
#150000
0'
0)
0/
04
#155000
1'
1)
1/
14
b11110000 `
#160000
0'
0)
0/
04
#165000
1'
1)
1/
14
b11101111 `
#170000
0'
0)
0/
04
#175000
1'
1)
1/
14
b11101110 `
#180000
0'
0)
0/
04
#185000
1'
1)
1/
14
b11101101 `
#190000
0'
0)
0/
04
#195000
1'
1)
1/
14
b11101100 `
#200000
0'
0)
0/
04
#205000
1'
1)
1/
14
b11101011 `
#210000
0'
0)
0/
04
#215000
1'
1)
1/
14
b11101010 `
#220000
0'
0)
0/
04
#225000
1'
1)
1/
14
b11101001 `
#230000
0'
0)
0/
04
#235000
1'
1)
1/
14
b11101000 `
#240000
0'
0)
0/
04
#245000
1'
1)
1/
14
b11100111 `
#250000
0'
0)
0/
04
#255000
1'
1)
1/
14
b11100110 `
#260000
0'
0)
0/
04
#265000
1'
1)
1/
14
b11100101 `
#270000
0'
0)
0/
04
#275000
1'
1)
1/
14
b11100100 `
#280000
0'
0)
0/
04
#285000
1'
1)
1/
14
b11100011 `
#290000
0'
0)
0/
04
#295000
1'
1)
1/
14
b11100010 `
#300000
0'
0)
0/
04
#305000
1'
1)
1/
14
b11100001 `
#310000
0'
0)
0/
04
#315000
1'
1)
1/
14
b11100000 `
#320000
0'
0)
0/
04
#325000
1'
1)
1/
14
b11011111 `
#330000
0'
0)
0/
04
#335000
1'
1)
1/
14
b11011110 `
#340000
0'
0)
0/
04
#345000
1'
1)
1/
14
b11011101 `
#350000
0'
0)
0/
04
#355000
1'
1)
1/
14
b11011100 `
#360000
0'
0)
0/
04
#365000
1'
1)
1/
14
b11011011 `
#370000
0'
0)
0/
04
#375000
1'
1)
1/
14
b11011010 `
#380000
0'
0)
0/
04
#385000
1'
1)
1/
14
b11011001 `
#390000
0'
0)
0/
04
#395000
1'
1)
1/
14
b11011000 `
#400000
0'
0)
0/
04
#405000
1'
1)
1/
14
b11010111 `
#410000
0'
0)
0/
04
#415000
1'
1)
1/
14
b11010110 `
#420000
0'
0)
0/
04
#425000
1'
1)
1/
14
b11010101 `
#430000
0'
0)
0/
04
#435000
1'
1)
1/
14
b11010100 `
#440000
0'
0)
0/
04
#445000
1'
1)
1/
14
b11010011 `
#450000
0'
0)
0/
04
#455000
1'
1)
1/
14
b11010010 `
#460000
0'
0)
0/
04
#465000
1'
1)
1/
14
b11010001 `
#470000
0'
0)
0/
04
#475000
1'
1)
1/
14
b11010000 `
#480000
0'
0)
0/
04
#485000
1'
1)
1/
14
b11001111 `
#490000
0'
0)
0/
04
#495000
1'
1)
1/
14
b11001110 `
#500000
0'
0)
0/
04
#505000
1'
1)
1/
14
b11001101 `
#510000
0'
0)
0/
04
#515000
1'
1)
1/
14
b11001100 `
#520000
0'
0)
0/
04
#525000
1'
1)
1/
14
b11001011 `
#530000
0'
0)
0/
04
#535000
1'
1)
1/
14
b11001010 `
#540000
0'
0)
0/
04
#545000
1'
1)
1/
14
b11001001 `
#550000
0'
0)
0/
04
#555000
1'
1)
1/
14
b11001000 `
#560000
0'
0)
0/
04
#565000
1'
1)
1/
14
b11000111 `
#570000
0'
0)
0/
04
#575000
1'
1)
1/
14
b11000110 `
#580000
0'
0)
0/
04
#585000
1'
1)
1/
14
b11000101 `
#590000
0'
0)
0/
04
#595000
1'
1)
1/
14
b11000100 `
#600000
0'
0)
0/
04
#605000
1'
1)
1/
14
b11000011 `
#610000
0'
0)
0/
04
#615000
1'
1)
1/
14
b11000010 `
#620000
0'
0)
0/
04
#625000
1'
1)
1/
14
b11000001 `
#630000
0'
0)
0/
04
#635000
1'
1)
1/
14
b11000000 `
#640000
0'
0)
0/
04
#645000
1'
1)
1/
14
b10111111 `
#650000
0'
0)
0/
04
#655000
1'
1)
1/
14
b10111110 `
#660000
0'
0)
0/
04
#665000
1'
1)
1/
14
b10111101 `
#670000
0'
0)
0/
04
#675000
1'
1)
1/
14
b10111100 `
#680000
0'
0)
0/
04
#685000
1'
1)
1/
14
b10111011 `
#690000
0'
0)
0/
04
#695000
1'
1)
1/
14
b10111010 `
#700000
0'
0)
0/
04
#705000
1'
1)
1/
14
b10111001 `
#710000
0'
0)
0/
04
#715000
1'
1)
1/
14
b10111000 `
#720000
0'
0)
0/
04
#725000
1'
1)
1/
14
b10110111 `
#730000
0'
0)
0/
04
#735000
1'
1)
1/
14
b10110110 `
#740000
0'
0)
0/
04
#745000
1'
1)
1/
14
b10110101 `
#750000
0'
0)
0/
04
#755000
1'
1)
1/
14
b10110100 `
#760000
0'
0)
0/
04
#765000
1'
1)
1/
14
b10110011 `
#770000
0'
0)
0/
04
#775000
1'
1)
1/
14
b10110010 `
#780000
0'
0)
0/
04
#785000
1'
1)
1/
14
b10110001 `
#790000
0'
0)
0/
04
#795000
1'
1)
1/
14
b10110000 `
#800000
0'
0)
0/
04
#805000
1'
1)
1/
14
b10101111 `
#810000
0'
0)
0/
04
#815000
1'
1)
1/
14
b10101110 `
#820000
0'
0)
0/
04
#825000
1'
1)
1/
14
b10101101 `
#830000
0'
0)
0/
04
#835000
1'
1)
1/
14
b10101100 `
#840000
0'
0)
0/
04
#845000
1'
1)
1/
14
b10101011 `
#850000
0'
0)
0/
04
#855000
1'
1)
1/
14
b10101010 `
#860000
0'
0)
0/
04
#865000
1'
1)
1/
14
b10101001 `
#870000
0'
0)
0/
04
#875000
1'
1)
1/
14
b10101000 `
#880000
0'
0)
0/
04
#885000
1'
1)
1/
14
b10100111 `
#890000
0'
0)
0/
04
#895000
1'
1)
1/
14
b10100110 `
#900000
0'
0)
0/
04
#905000
1'
1)
1/
14
b10100101 `
#910000
0'
0)
0/
04
#915000
1'
1)
1/
14
b10100100 `
#920000
0'
0)
0/
04
#925000
1'
1)
1/
14
b10100011 `
#930000
0'
0)
0/
04
#935000
1'
1)
1/
14
b10100010 `
#940000
0'
0)
0/
04
#945000
1'
1)
1/
14
b10100001 `
#950000
0'
0)
0/
04
#955000
1'
1)
1/
14
b10100000 `
#960000
0'
0)
0/
04
#965000
1'
1)
1/
14
b10011111 `
#970000
0'
0)
0/
04
#975000
1'
1)
1/
14
b10011110 `
#980000
0'
0)
0/
04
#985000
1'
1)
1/
14
b10011101 `
#990000
0'
0)
0/
04
#995000
1'
1)
1/
14
b10011100 `
#1000000
0'
0)
0/
04
#1005000
1'
1)
1/
14
b10011011 `
#1010000
0'
0)
0/
04
#1015000
1'
1)
1/
14
b10011010 `
#1020000
0'
0)
0/
04
#1025000
1'
1)
1/
14
b10011001 `
#1030000
0'
0)
0/
04
#1035000
1'
1)
1/
14
b10011000 `
#1040000
0'
0)
0/
04
#1045000
1'
1)
1/
14
b10010111 `
#1050000
0'
0)
0/
04
#1055000
1'
1)
1/
14
b10010110 `
#1060000
0'
0)
0/
04
#1065000
1'
1)
1/
14
b10010101 `
#1070000
0'
0)
0/
04
#1075000
1'
1)
1/
14
b10010100 `
#1080000
0'
0)
0/
04
#1085000
1'
1)
1/
14
b10010011 `
#1090000
0'
0)
0/
04
#1095000
1'
1)
1/
14
b10010010 `
#1100000
0'
0)
0/
04
#1105000
1'
1)
1/
14
b10010001 `
#1110000
0'
0)
0/
04
#1115000
1'
1)
1/
14
b10010000 `
#1120000
0'
0)
0/
04
#1125000
1'
1)
1/
14
b10001111 `
#1130000
0'
0)
0/
04
#1135000
1'
1)
1/
14
b10001110 `
#1140000
0'
0)
0/
04
#1145000
1'
1)
1/
14
b10001101 `
#1150000
0'
0)
0/
04
#1155000
1'
1)
1/
14
b10001100 `
#1160000
0'
0)
0/
04
#1165000
1'
1)
1/
14
b10001011 `
#1170000
0'
0)
0/
04
#1175000
1'
1)
1/
14
b10001010 `
#1180000
0'
0)
0/
04
#1185000
1'
1)
1/
14
b10001001 `
#1190000
0'
0)
0/
04
#1195000
1'
1)
1/
14
b10001000 `
#1200000
0'
0)
0/
04
#1205000
1'
1)
1/
14
b10000111 `
#1210000
0'
0)
0/
04
#1215000
1'
1)
1/
14
b10000110 `
#1220000
0'
0)
0/
04
#1225000
1'
1)
1/
14
b10000101 `
#1230000
0'
0)
0/
04
#1235000
1'
1)
1/
14
b10000100 `
#1240000
0'
0)
0/
04
#1245000
1'
1)
1/
14
b10000011 `
#1250000
0'
0)
0/
04
#1255000
1'
1)
1/
14
b10000010 `
#1260000
0'
0)
0/
04
#1265000
1'
1)
1/
14
b10000001 `
#1270000
0'
0)
0/
04
#1275000
1'
1)
1/
14
b10000000 `
#1280000
0'
0)
0/
04
#1285000
1'
1)
1/
14
b01111111 `
1a
#1290000
0'
0)
0/
04
#1295000
1'
1)
1/
14
b00000000 `
b11111110 b
#1300000
0'
0)
0/
04
#1305000
1'
1)
1/
14
b11111101 b
#1310000
0'
0)
0/
04
#1315000
1'
1)
1/
14
b11111100 b
#1320000
0'
0)
0/
04
#1325000
1'
1)
1/
14
b11111011 b
#1330000
0'
0)
0/
04
#1335000
1'
1)
1/
14
b11111010 b
#1340000
0'
0)
0/
04
#1345000
1'
1)
1/
14
b11111001 b
#1350000
0'
0)
0/
04
#1355000
1'
1)
1/
14
b11111000 b
#1360000
0'
0)
0/
04
#1365000
1'
1)
1/
14
b11110111 b
#1370000
0'
0)
0/
04
#1375000
1'
1)
1/
14
b11110110 b
#1380000
0'
0)
0/
04
#1385000
1'
1)
1/
14
b11110101 b
#1390000
0'
0)
0/
04
#1395000
1'
1)
1/
14
b11110100 b
#1400000
0'
0)
0/
04
#1405000
1'
1)
1/
14
b11110011 b
#1410000
0'
0)
0/
04
#1415000
1'
1)
1/
14
b11110010 b
#1420000
0'
0)
0/
04
#1425000
1'
1)
1/
14
b11110001 b
#1430000
0'
0)
0/
04
#1435000
1'
1)
1/
14
b11110000 b
#1440000
0'
0)
0/
04
#1445000
1'
1)
1/
14
b11101111 b
#1450000
0'
0)
0/
04
#1455000
1'
1)
1/
14
b11101110 b
#1460000
0'
0)
0/
04
#1465000
1'
1)
1/
14
b11101101 b
#1470000
0'
0)
0/
04
#1475000
1'
1)
1/
14
b11101100 b
#1480000
0'
0)
0/
04
#1485000
1'
1)
1/
14
b11101011 b
#1490000
0'
0)
0/
04
#1495000
1'
1)
1/
14
b11101010 b
#1500000
0'
0)
0/
04
#1505000
1'
1)
1/
14
b11101001 b
#1510000
0'
0)
0/
04
#1515000
1'
1)
1/
14
b11101000 b
#1520000
0'
0)
0/
04
#1525000
1'
1)
1/
14
b11100111 b
#1530000
0'
0)
0/
04
#1535000
1'
1)
1/
14
b11100110 b
#1540000
0'
0)
0/
04
#1545000
1'
1)
1/
14
b11100101 b
#1550000
0'
0)
0/
04
#1555000
1'
1)
1/
14
b11100100 b
#1560000
0'
0)
0/
04
#1565000
1'
1)
1/
14
b11100011 b
#1570000
0'
0)
0/
04
#1575000
1'
1)
1/
14
b11100010 b
#1580000
0'
0)
0/
04
#1585000
1'
1)
1/
14
b11100001 b
#1590000
0'
0)
0/
04
#1595000
1'
1)
1/
14
b11100000 b
#1600000
0'
0)
0/
04
#1605000
1'
1)
1/
14
b11011111 b
#1610000
0'
0)
0/
04
#1615000
1'
1)
1/
14
b11011110 b
#1620000
0'
0)
0/
04
#1625000
1'
1)
1/
14
b11011101 b
#1630000
0'
0)
0/
04
#1635000
1'
1)
1/
14
b11011100 b
#1640000
0'
0)
0/
04
#1645000
1'
1)
1/
14
b11011011 b
#1650000
0'
0)
0/
04
#1655000
1'
1)
1/
14
b11011010 b
#1660000
0'
0)
0/
04
#1665000
1'
1)
1/
14
b11011001 b
#1670000
0'
0)
0/
04
#1675000
1'
1)
1/
14
b11011000 b
#1680000
0'
0)
0/
04
#1685000
1'
1)
1/
14
b11010111 b
#1690000
0'
0)
0/
04
#1695000
1'
1)
1/
14
b11010110 b
#1700000
0'
0)
0/
04
#1705000
1'
1)
1/
14
b11010101 b
#1710000
0'
0)
0/
04
#1715000
1'
1)
1/
14
b11010100 b
#1720000
0'
0)
0/
04
#1725000
1'
1)
1/
14
b11010011 b
#1730000
0'
0)
0/
04
#1735000
1'
1)
1/
14
b11010010 b
#1740000
0'
0)
0/
04
#1745000
1'
1)
1/
14
b11010001 b
#1750000
0'
0)
0/
04
#1755000
1'
1)
1/
14
b11010000 b
#1760000
0'
0)
0/
04
#1765000
1'
1)
1/
14
b11001111 b
#1770000
0'
0)
0/
04
#1775000
1'
1)
1/
14
b11001110 b
#1780000
0'
0)
0/
04
#1785000
1'
1)
1/
14
b11001101 b
#1790000
0'
0)
0/
04
#1795000
1'
1)
1/
14
b11001100 b
#1800000
0'
0)
0/
04
#1805000
1'
1)
1/
14
b11001011 b
#1810000
0'
0)
0/
04
#1815000
1'
1)
1/
14
b11001010 b
#1820000
0'
0)
0/
04
#1825000
1'
1)
1/
14
b11001001 b
#1830000
0'
0)
0/
04
#1835000
1'
1)
1/
14
b11001000 b
#1840000
0'
0)
0/
04
#1845000
1'
1)
1/
14
b11000111 b
#1850000
0'
0)
0/
04
#1855000
1'
1)
1/
14
b11000110 b
#1860000
0'
0)
0/
04
#1865000
1'
1)
1/
14
b11000101 b
#1870000
0'
0)
0/
04
#1875000
1'
1)
1/
14
b11000100 b
#1880000
0'
0)
0/
04
#1885000
1'
1)
1/
14
b11000011 b
#1890000
0'
0)
0/
04
#1895000
1'
1)
1/
14
b11000010 b
#1900000
0'
0)
0/
04
#1905000
1'
1)
1/
14
b11000001 b
#1910000
0'
0)
0/
04
#1915000
1'
1)
1/
14
b11000000 b
#1920000
0'
0)
0/
04
#1925000
1'
1)
1/
14
b10111111 b
#1930000
0'
0)
0/
04
#1935000
1'
1)
1/
14
b10111110 b
#1940000
0'
0)
0/
04
#1945000
1'
1)
1/
14
b10111101 b
#1950000
0'
0)
0/
04
#1955000
1'
1)
1/
14
b10111100 b
#1960000
0'
0)
0/
04
#1965000
1'
1)
1/
14
b10111011 b
#1970000
0'
0)
0/
04
#1975000
1'
1)
1/
14
b10111010 b
#1980000
0'
0)
0/
04
#1985000
1'
1)
1/
14
b10111001 b
#1990000
0'
0)
0/
04
#1995000
1'
1)
1/
14
b10111000 b
#2000000
0'
0)
0/
04
#2005000
1'
1)
1/
14
b10110111 b
#2010000
0'
0)
0/
04
#2015000
1'
1)
1/
14
b10110110 b
#2020000
0'
0)
0/
04
#2025000
1'
1)
1/
14
b10110101 b
#2030000
0'
0)
0/
04
#2035000
1'
1)
1/
14
b10110100 b
#2040000
0'
0)
0/
04
#2045000
1'
1)
1/
14
b10110011 b
#2050000
0'
0)
0/
04
#2055000
1'
1)
1/
14
b10110010 b
#2060000
0'
0)
0/
04
#2065000
1'
1)
1/
14
b10110001 b
#2070000
0'
0)
0/
04
#2075000
1'
1)
1/
14
b10110000 b
#2080000
0'
0)
0/
04
#2085000
1'
1)
1/
14
b10101111 b
#2090000
0'
0)
0/
04
#2095000
1'
1)
1/
14
b10101110 b
#2100000
0'
0)
0/
04
#2105000
1'
1)
1/
14
b10101101 b
#2110000
0'
0)
0/
04
#2115000
1'
1)
1/
14
b10101100 b
#2120000
0'
0)
0/
04
#2125000
1'
1)
1/
14
b10101011 b
#2130000
0'
0)
0/
04
#2135000
1'
1)
1/
14
b10101010 b
#2140000
0'
0)
0/
04
#2145000
1'
1)
1/
14
b10101001 b
#2150000
0'
0)
0/
04
#2155000
1'
1)
1/
14
b10101000 b
#2160000
0'
0)
0/
04
#2165000
1'
1)
1/
14
b10100111 b
#2170000
0'
0)
0/
04
#2175000
1'
1)
1/
14
b10100110 b
#2180000
0'
0)
0/
04
#2185000
1'
1)
1/
14
b10100101 b
#2190000
0'
0)
0/
04
#2195000
1'
1)
1/
14
b10100100 b
#2200000
0'
0)
0/
04
#2205000
1'
1)
1/
14
b10100011 b
#2210000
0'
0)
0/
04
#2215000
1'
1)
1/
14
b10100010 b
#2220000
0'
0)
0/
04
#2225000
1'
1)
1/
14
b10100001 b
#2230000
0'
0)
0/
04
#2235000
1'
1)
1/
14
b10100000 b
#2240000
0'
0)
0/
04
#2245000
1'
1)
1/
14
b10011111 b
#2250000
0'
0)
0/
04
#2255000
1'
1)
1/
14
b10011110 b
#2260000
0'
0)
0/
04
#2265000
1'
1)
1/
14
b10011101 b
#2270000
0'
0)
0/
04
#2275000
1'
1)
1/
14
b10011100 b
#2280000
0'
0)
0/
04
#2285000
1'
1)
1/
14
b10011011 b
#2290000
0'
0)
0/
04
#2295000
1'
1)
1/
14
b10011010 b
#2300000
0'
0)
0/
04
#2305000
1'
1)
1/
14
b10011001 b
#2310000
0'
0)
0/
04
#2315000
1'
1)
1/
14
b10011000 b
#2320000
0'
0)
0/
04
#2325000
1'
1)
1/
14
b10010111 b
#2330000
0'
0)
0/
04
#2335000
1'
1)
1/
14
b10010110 b
